{
    "JusyuName": { "スギ": "Ceder", "ヒノキ": "Cypress" },
    "JusyuCode": { "スギ": 1, "ヒノキ": 11 },
    "RasterValue": { "cedar": 1, "cypress": 2 },
    "dicelossWeight": [1.0, 1.0, 1.0],
    "datasetRatio": { "trainRatio": 0.7, "validRatio": 0.2, "testRatio": 0.1 }
}